24 45
4 6
.aaaaaaaaaaaaaaaaaaaaaa......................
a......................a...........aaaaaa....
.a......................aa........a......a...
..a.......................a...aaaa........a..
...a.......................aaa.............a.
....aaaaa...................................a
.........aaaaa...aaa........................a
..............aaa...a.......................a
...................a........................a
..................a........................aa
................aa........................a..
.aaaaaaaaaaaaaaa...........................aa
a...........................................a
a...........................................a
a...........................................a
a..........................................aa
.a......................................aaaa.
..a..................................aaa.....
...a...............................aa........
...a.........................aaaaaa..........
....a.......................a................
.....aaaaa................aa.................
..........aaaaaa............a................
................aaaaaaaaaaaa.................
9 19
2 2
aaaaa....aaaaaa....
a....aaaa......aaaa
aaa...............a
...a.............aa
....a...........a..
..aa.............a.
.a................a
..aaa............aa
.....aaaaaaaaaaaa..
7 7
2 3
aaaaaaa
a.....a
a.....a
a.....a
a.....a
a.....a
aaaaaaa
23 60
9 11
...................aaaaa..............................aaaaa.
..aaaaaaaaaaaaaaaaaa....aaaaa........................a.....a
.a..........................aaaaaaaaaaaaaaaaaaaaaaaaaa.....a
..aaaaaa...................................................a
........a.........................................aaaaaaaaa.
....aaaa.........................................a..........
....a.......................................aaaaa...........
....a......................................a................
....a...................................aaa.................
....a..................................a....................
....a..................................a....................
....a..................................a....................
....a..................................a....................
....a..................................a....................
....a...................................aaaaaaaaaa..........
...a..............................................a.........
.aa................................................aaaaaaaa.
a..........................................................a
a.........................................................a.
.aaaaaaaaaaa..............................................a.
...........a.................................aaaaaaaaaaaaa..
...........a................................a...............
............aaaaaaaaaaaaaaaaaaaaaaaaaaaaaaaaa...............
21 38
10 10
..aaaaaaaaaaaaaaaaaaaaaaaaaa..........
.a..........................aa........
.a............................aaa.....
a................................a....
.aa..............................a....
...a.............................a....
...a........................aaaaa.....
.aa.........................a.........
a...........................aaaaa.....
.aaa.............................a....
...a.............................a....
...a.........................aaaa.....
...a........................a.........
.aa........................a..........
a...........................aaaaa.....
.aa..............................a....
...a.............................a....
...a........................aaaaa.....
...a........................a.........
....aa.....................a..........
......aaaaaaaaaaaaaaaaaaaaa...........
